{
  "type": "service_account",
  "project_id": "aliposter",
  "private_key_id": "3cbbf1077d1d6ee042eb1b4e5cf704ab57c0c99b",
  "private_key": "-----BEGIN PRIVATE KEY-----\nMIIEvAIBADANBgkqhkiG9w0BAQEFAASCBKYwggSiAgEAAoIBAQCNbC5OUVAsJiu5\n7ZGQPsYiW5w9BFN7D+J9gyD0q394wSH11SA64G0CXizfYR66dKvEoOj6+JTCTcTb\n2telDM7uoLFJ9oSwHKZDcxBMggtilJhmVLnOHWiplbUpXjYHvP0EAsNiHaP7uu58\nFwzOhRhZyR6p3MxmVRE+ZP+9iou2+8tVORuSR7mGoMeP///ypdkph9VESAisOKXF\nHyg5Xl6E2r/7dyk7bQVBeZDwB/EToFPotqokVChCuDxy9nCv70vpYDZK1jZznSxO\n9q/GQ4djXYp9vRCck2WPo+2VbIQjTTZAWOc06A3mhIeaU0u8o7lOydfh0wTWf1UP\nMdjg9xxTAgMBAAECggEACFaanlbLt/j0duhwLHyRT6W3Q58nv3n37lNEuKqef/E+\nEJHAt17TsNj6fnjqPviNEGg1zYuA+UwjjMDyGiUYrzNP3mgHwzGeYonXl9DvXVcc\nj8kq7M8bhHTFl8IIDVwI4P27SdFRJjWLjksIxHwqBywOUke7GcU4YbMwWmSECQ6f\nPN6ZzRBfEeu+X+zaRZliaL6J8ywtpJLXd2wZlEzFMGiZ76T+OOVMUHx+kt326XSP\nFqNNjq8c/sgNJXgxgqFoL8f7lp7N8M5KTGqvyC6SNEULdhxJOPtAKTpWrTbYbEu1\nVx2uj6k+r+qrrMe3laO8i18ch610aLXE9q96QLZDZQKBgQC/ga4LQEsZQZiKrGKH\nlBV5YEJtQ8abcseAfOA2mzeE+39hJp75bDUhXNUVK1NAbu7hg37X9uXVD/313n2C\n64JJPtimHkVaxw2YABTG9zybRMCzUSp1/rpBd7upp6tMknWYPxGekTyA8iwlJQ4l\ndGjAbwOArU9tU/SS8ywOcGgSBwKBgQC9DJ64Omip53DZHON4ez7EISvTOarSg/dg\nsTPbJ96ysSLE2NMCUPrPu99rZ20VCwoLsozQNHm1Vmyw0AnJ6c55OrqGG0Rj+WWr\nHjZcrA+PvhsU1ZnzM1sLtabc1o5Ma786ShZUyH/yxalikMHkEZSCFnWtOkKOP1sm\nXW5Jl4XgVQKBgGaScMP59b9bUPbFiiiP+kh+dFXNvWy5N33sZLMaw8voYLuKUg/K\nE1MBQ+gIwph6Ulxbb+8AgO1zmVS9jIA44BmXHbcr833Bq9hEAtzmw4Fue8APsyxr\n+RrjpJIkCi4DLBUVgrxpkfyGuXpTtJX/GbQoQboEGcy28QJcWLaLIlK1AoGADesU\n8GlUdVXVyBZJZQBl4Zizmkx/mBohJ1xEfhkUW0GRVr7D4kLGBG9HhqfJryft6GiP\n13BVmZUwUWAvqE7vZZt+SgtN4LJm2s9Rn0cHqkSLx9/mArLAPD92doHRXiz8mjUE\nKd/NE7mbu+b+b2Uf8ufmaAeHCOP/OPbd/MsMDzUCgYAUkqdzAbc9uNa0v+x3ZUEQ\ndwv/YLaTXWg+OqG/M+ccNeXJvToA9PK855lJYYNhyAlTOuWovfzHOjgPOS/lWboY\neVh8mZ/2sIvKeuIF7hIyQceAJ+BbuK6GdyabqeuZnktmQKz7lz0+QJKPmjcM9iOu\nxdhIBG3xKTYXmHqHP1MiNQ==\n-----END PRIVATE KEY-----\n",
  "client_email": "firebase-adminsdk-o0j94@aliposter.iam.gserviceaccount.com",
  "client_id": "107512178257427164599",
  "auth_uri": "https://accounts.google.com/o/oauth2/auth",
  "token_uri": "https://oauth2.googleapis.com/token",
  "auth_provider_x509_cert_url": "https://www.googleapis.com/oauth2/v1/certs",
  "client_x509_cert_url": "https://www.googleapis.com/robot/v1/metadata/x509/firebase-adminsdk-o0j94%40aliposter.iam.gserviceaccount.com"
}
